simulation/qsim/SAP1.msim.vcd
$comment
	File created using the following command:
		vcd file SAP1.msim.vcd -direction
$end
$date
	Sat Mar 05 19:22:53 2022
$end
$version
	ModelSim Version 2020.1
$end
$timescale
	1ps
$end

$scope module SAP1_vlg_vec_tst $end
$var reg 1 ! CK $end
$var reg 1 " MR $end
$var wire 1 # DBG_BUS [7] $end
$var wire 1 $ DBG_BUS [6] $end
$var wire 1 % DBG_BUS [5] $end
$var wire 1 & DBG_BUS [4] $end
$var wire 1 ' DBG_BUS [3] $end
$var wire 1 ( DBG_BUS [2] $end
$var wire 1 ) DBG_BUS [1] $end
$var wire 1 * DBG_BUS [0] $end
$var wire 1 + DBG_CONTROL_WORD [11] $end
$var wire 1 , DBG_CONTROL_WORD [10] $end
$var wire 1 - DBG_CONTROL_WORD [9] $end
$var wire 1 . DBG_CONTROL_WORD [8] $end
$var wire 1 / DBG_CONTROL_WORD [7] $end
$var wire 1 0 DBG_CONTROL_WORD [6] $end
$var wire 1 1 DBG_CONTROL_WORD [5] $end
$var wire 1 2 DBG_CONTROL_WORD [4] $end
$var wire 1 3 DBG_CONTROL_WORD [3] $end
$var wire 1 4 DBG_CONTROL_WORD [2] $end
$var wire 1 5 DBG_CONTROL_WORD [1] $end
$var wire 1 6 DBG_CONTROL_WORD [0] $end
$var wire 1 7 DISPLAY [7] $end
$var wire 1 8 DISPLAY [6] $end
$var wire 1 9 DISPLAY [5] $end
$var wire 1 : DISPLAY [4] $end
$var wire 1 ; DISPLAY [3] $end
$var wire 1 < DISPLAY [2] $end
$var wire 1 = DISPLAY [1] $end
$var wire 1 > DISPLAY [0] $end

$scope module i1 $end
$var wire 1 ? gnd $end
$var wire 1 @ vcc $end
$var wire 1 A unknown $end
$var tri1 1 B devclrn $end
$var tri1 1 C devpor $end
$var tri1 1 D devoe $end
$var wire 1 E DBG_BUS[0]~output_o $end
$var wire 1 F DBG_BUS[1]~output_o $end
$var wire 1 G DBG_BUS[2]~output_o $end
$var wire 1 H DBG_BUS[3]~output_o $end
$var wire 1 I DBG_BUS[4]~output_o $end
$var wire 1 J DBG_BUS[5]~output_o $end
$var wire 1 K DBG_BUS[6]~output_o $end
$var wire 1 L DBG_BUS[7]~output_o $end
$var wire 1 M DISPLAY[0]~output_o $end
$var wire 1 N DISPLAY[1]~output_o $end
$var wire 1 O DISPLAY[2]~output_o $end
$var wire 1 P DISPLAY[3]~output_o $end
$var wire 1 Q DISPLAY[4]~output_o $end
$var wire 1 R DISPLAY[5]~output_o $end
$var wire 1 S DISPLAY[6]~output_o $end
$var wire 1 T DISPLAY[7]~output_o $end
$var wire 1 U DBG_CONTROL_WORD[0]~output_o $end
$var wire 1 V DBG_CONTROL_WORD[1]~output_o $end
$var wire 1 W DBG_CONTROL_WORD[2]~output_o $end
$var wire 1 X DBG_CONTROL_WORD[3]~output_o $end
$var wire 1 Y DBG_CONTROL_WORD[4]~output_o $end
$var wire 1 Z DBG_CONTROL_WORD[5]~output_o $end
$var wire 1 [ DBG_CONTROL_WORD[6]~output_o $end
$var wire 1 \ DBG_CONTROL_WORD[7]~output_o $end
$var wire 1 ] DBG_CONTROL_WORD[8]~output_o $end
$var wire 1 ^ DBG_CONTROL_WORD[9]~output_o $end
$var wire 1 _ DBG_CONTROL_WORD[10]~output_o $end
$var wire 1 ` DBG_CONTROL_WORD[11]~output_o $end
$var wire 1 a CK~input_o $end
$var wire 1 b CK~inputclkctrl_outclk $end
$var wire 1 c control_unit|count~2_combout $end
$var wire 1 d MR~input_o $end
$var wire 1 e MR~inputclkctrl_outclk $end
$var wire 1 f control_unit|count[1]~1_combout $end
$var wire 1 g control_unit|count~0_combout $end
$var wire 1 h control_unit|rom1~7_combout $end
$var wire 1 i control_unit|rom1~9_combout $end
$var wire 1 j ula|Add0~0_combout $end
$var wire 1 k control_unit|rom1~12_combout $end
$var wire 1 l control_unit|rom1~10_combout $end
$var wire 1 m control_unit|rom1~11_combout $end
$var wire 1 n bus_mux|BUS_OUT[1]~14_combout $end
$var wire 1 o control_unit|rom1~3_combout $end
$var wire 1 p ula|Add0~6_combout $end
$var wire 1 q control_unit|rom1~13_combout $end
$var wire 1 r ula|Add0~3_cout $end
$var wire 1 s ula|Add0~5 $end
$var wire 1 t ula|Add0~7_combout $end
$var wire 1 u bus_mux|BUS_OUT[1]~15_combout $end
$var wire 1 v control_unit|rom1~8_combout $end
$var wire 1 w pc|count[0]~4_combout $end
$var wire 1 x pc|count[1]~0_combout $end
$var wire 1 y bus_mux|BUS_OUT[1]~16_combout $end
$var wire 1 z bus_mux|BUS_OUT[1]~17_combout $end
$var wire 1 { bus_mux|BUS_OUT[1]~18_combout $end
$var wire 1 | bus_mux|BUS_OUT[1]~19_combout $end
$var wire 1 } mar|DATA_OUT[1]~feeder_combout $end
$var wire 1 ~ control_unit|rom2~0_combout $end
$var wire 1 !! control_unit|rom2~2_combout $end
$var wire 1 "! mem|rom~2_combout $end
$var wire 1 #! bus_mux|BUS_OUT[0]~9_combout $end
$var wire 1 $! pc|count[2]~1_combout $end
$var wire 1 %! pc|count[3]~2_combout $end
$var wire 1 &! pc|count[3]~3_combout $end
$var wire 1 '! bus_mux|BUS_OUT[7]~8_combout $end
$var wire 1 (! bus_mux|BUS_OUT[3]~23_combout $end
$var wire 1 )! bus_mux|BUS_OUT[3]~24_combout $end
$var wire 1 *! ula|Add0~12_combout $end
$var wire 1 +! ula|Add0~9_combout $end
$var wire 1 ,! ula|Add0~8 $end
$var wire 1 -! ula|Add0~11 $end
$var wire 1 .! ula|Add0~13_combout $end
$var wire 1 /! bus_mux|BUS_OUT[3]~25_combout $end
$var wire 1 0! mar|DATA_OUT[3]~feeder_combout $end
$var wire 1 1! mem|rom~3_combout $end
$var wire 1 2! bus_mux|BUS_OUT[4]~26_combout $end
$var wire 1 3! bus_mux|BUS_OUT[4]~28_combout $end
$var wire 1 4! ula|Add0~15_combout $end
$var wire 1 5! ula|Add0~14 $end
$var wire 1 6! ula|Add0~16_combout $end
$var wire 1 7! bus_mux|BUS_OUT[4]~27_combout $end
$var wire 1 8! bus_mux|BUS_OUT[4]~29_combout $end
$var wire 1 9! bus_mux|BUS_OUT[4]~30_combout $end
$var wire 1 :! bus_mux|BUS_OUT[4]~31_combout $end
$var wire 1 ;! control_unit|rom1~2_combout $end
$var wire 1 <! ula|Add0~1_combout $end
$var wire 1 =! ula|Add0~4_combout $end
$var wire 1 >! mem|rom~0_combout $end
$var wire 1 ?! bus_mux|BUS_OUT[0]~10_combout $end
$var wire 1 @! bus_mux|BUS_OUT[0]~11_combout $end
$var wire 1 A! bus_mux|BUS_OUT[0]~13_combout $end
$var wire 1 B! mar|DATA_OUT[0]~feeder_combout $end
$var wire 1 C! mem|rom~4_combout $end
$var wire 1 D! ula|Add0~18_combout $end
$var wire 1 E! ula|Add0~17 $end
$var wire 1 F! ula|Add0~19_combout $end
$var wire 1 G! bus_mux|BUS_OUT[5]~32_combout $end
$var wire 1 H! bus_mux|BUS_OUT[5]~33_combout $end
$var wire 1 I! bus_mux|BUS_OUT[5]~34_combout $end
$var wire 1 J! ir|DATA_OUT[5]~feeder_combout $end
$var wire 1 K! control_unit|rom1~0_combout $end
$var wire 1 L! control_unit|rom1~5_combout $end
$var wire 1 M! control_unit|rom1~4_combout $end
$var wire 1 N! control_unit|rom1~6_combout $end
$var wire 1 O! bus_mux|BUS_OUT[7]~38_combout $end
$var wire 1 P! ula|Add0~24_combout $end
$var wire 1 Q! ula|Add0~21_combout $end
$var wire 1 R! ula|Add0~20 $end
$var wire 1 S! ula|Add0~23 $end
$var wire 1 T! ula|Add0~25_combout $end
$var wire 1 U! bus_mux|BUS_OUT[7]~39_combout $end
$var wire 1 V! ir|DATA_OUT[7]~feeder_combout $end
$var wire 1 W! control_unit|rom2~3_combout $end
$var wire 1 X! control_unit|rom2~1_combout $end
$var wire 1 Y! bus_mux|BUS_OUT[7]~12_combout $end
$var wire 1 Z! ula|Add0~10_combout $end
$var wire 1 [! mem|rom~1_combout $end
$var wire 1 \! bus_mux|BUS_OUT[2]~20_combout $end
$var wire 1 ]! bus_mux|BUS_OUT[2]~21_combout $end
$var wire 1 ^! bus_mux|BUS_OUT[2]~22_combout $end
$var wire 1 _! mar|DATA_OUT[2]~feeder_combout $end
$var wire 1 `! mem|rom~5_combout $end
$var wire 1 a! ula|Add0~22_combout $end
$var wire 1 b! bus_mux|BUS_OUT[6]~35_combout $end
$var wire 1 c! bus_mux|BUS_OUT[6]~36_combout $end
$var wire 1 d! bus_mux|BUS_OUT[6]~37_combout $end
$var wire 1 e! ir|DATA_OUT[6]~feeder_combout $end
$var wire 1 f! control_unit|rom1~1_combout $end
$var wire 1 g! bus_mux|BUS_OUT[0]~40_combout $end
$var wire 1 h! bus_mux|BUS_OUT[2]~41_combout $end
$var wire 1 i! bus_mux|BUS_OUT[3]~42_combout $end
$var wire 1 j! bus_mux|BUS_OUT[6]~43_combout $end
$var wire 1 k! bus_mux|BUS_OUT[7]~44_combout $end
$var wire 1 l! outr|DATA_OUT[0]~feeder_combout $end
$var wire 1 m! outr|DATA_OUT[1]~feeder_combout $end
$var wire 1 n! outr|DATA_OUT[5]~feeder_combout $end
$var wire 1 o! outr|DATA_OUT[6]~feeder_combout $end
$var wire 1 p! ir|DATA_OUT [7] $end
$var wire 1 q! ir|DATA_OUT [6] $end
$var wire 1 r! ir|DATA_OUT [5] $end
$var wire 1 s! ir|DATA_OUT [4] $end
$var wire 1 t! ir|DATA_OUT [3] $end
$var wire 1 u! ir|DATA_OUT [2] $end
$var wire 1 v! ir|DATA_OUT [1] $end
$var wire 1 w! ir|DATA_OUT [0] $end
$var wire 1 x! outr|DATA_OUT [7] $end
$var wire 1 y! outr|DATA_OUT [6] $end
$var wire 1 z! outr|DATA_OUT [5] $end
$var wire 1 {! outr|DATA_OUT [4] $end
$var wire 1 |! outr|DATA_OUT [3] $end
$var wire 1 }! outr|DATA_OUT [2] $end
$var wire 1 ~! outr|DATA_OUT [1] $end
$var wire 1 !" outr|DATA_OUT [0] $end
$var wire 1 "" control_unit|count [2] $end
$var wire 1 #" control_unit|count [1] $end
$var wire 1 $" control_unit|count [0] $end
$var wire 1 %" mar|DATA_OUT [3] $end
$var wire 1 &" mar|DATA_OUT [2] $end
$var wire 1 '" mar|DATA_OUT [1] $end
$var wire 1 (" mar|DATA_OUT [0] $end
$var wire 1 )" br|DATA_OUT [7] $end
$var wire 1 *" br|DATA_OUT [6] $end
$var wire 1 +" br|DATA_OUT [5] $end
$var wire 1 ," br|DATA_OUT [4] $end
$var wire 1 -" br|DATA_OUT [3] $end
$var wire 1 ." br|DATA_OUT [2] $end
$var wire 1 /" br|DATA_OUT [1] $end
$var wire 1 0" br|DATA_OUT [0] $end
$var wire 1 1" ar|DATA_OUT [7] $end
$var wire 1 2" ar|DATA_OUT [6] $end
$var wire 1 3" ar|DATA_OUT [5] $end
$var wire 1 4" ar|DATA_OUT [4] $end
$var wire 1 5" ar|DATA_OUT [3] $end
$var wire 1 6" ar|DATA_OUT [2] $end
$var wire 1 7" ar|DATA_OUT [1] $end
$var wire 1 8" ar|DATA_OUT [0] $end
$var wire 1 9" pc|count [3] $end
$var wire 1 :" pc|count [2] $end
$var wire 1 ;" pc|count [1] $end
$var wire 1 <" pc|count [0] $end
$upscope $end
$upscope $end
$enddefinitions $end
#0
$dumpvars
0!
1"
0*
0)
0(
0'
0&
0%
0$
0#
06
05
04
03
02
01
00
0/
0.
1-
1,
0+
0>
0=
0<
0;
0:
09
08
07
0?
1@
xA
1B
1C
1D
0E
0F
0G
0H
0I
0J
0K
0L
0M
0N
0O
0P
0Q
0R
0S
0T
0U
0V
0W
0X
0Y
0Z
0[
0\
0]
1^
1_
0`
0a
0b
1c
1d
1e
0f
0g
0h
0i
1j
0k
0l
1m
0n
0o
0p
0q
0r
1s
0t
0u
0v
1w
0x
0y
0z
0{
0|
0}
0~
1!!
0"!
1#!
0$!
0%!
0&!
1'!
0(!
0)!
0*!
0+!
0,!
1-!
0.!
0/!
00!
11!
02!
03!
04!
05!
06!
17!
08!
09!
0:!
0;!
0<!
0=!
0>!
0?!
0@!
0A!
0B!
0C!
0D!
1E!
0F!
0G!
0H!
0I!
0J!
0K!
0L!
1M!
0N!
0O!
0P!
0Q!
0R!
1S!
0T!
0U!
0V!
1W!
0X!
1Y!
0Z!
0[!
0\!
0]!
0^!
0_!
0`!
0a!
0b!
0c!
0d!
0e!
0f!
0g!
0h!
0i!
0j!
0k!
0l!
0m!
0n!
0o!
0w!
0v!
0u!
0t!
0s!
0r!
0q!
0p!
0!"
0~!
0}!
0|!
0{!
0z!
0y!
0x!
0$"
0#"
0""
0("
0'"
0&"
0%"
00"
0/"
0."
0-"
0,"
0+"
0*"
0)"
08"
07"
06"
05"
04"
03"
02"
01"
0<"
0;"
0:"
09"
$end
#10000
1!
1a
1b
#20000
0!
0a
0b
#30000
1!
1a
1b
#40000
0!
0a
0b
#50000
0"
1!
0d
1a
0e
1b
#60000
0!
0a
0b
1$"
1X!
0W!
0!!
1k
1f
0c
1\
1`
0^
0_
1]
12!
0#!
1.
0,
0-
1+
1/
1c!
1(!
19!
1I
1)!
1&
1:!
1i!
1/!
1H
1'
10!
#70000
1!
1a
1b
1s!
1t!
1l
#80000
0!
0a
0b
0$"
1#"
1<"
0m
0X!
1!!
0k
1c
1x
0w
0\
0`
1^
0]
1[
07!
02!
0'!
1#!
10
0.
1-
0+
0/
0Y!
0x
zE
zF
zG
zH
zI
zJ
zK
zL
18!
0c!
1\!
1?!
z#
z$
z%
z&
z'
z(
z)
z*
09!
1Y!
1d!
1^!
1U!
1I!
1A!
1|
0E
0F
0G
1H
0J
0K
0L
0I
0&
0#
0$
0%
1'
0(
0)
0*
19!
0d!
0:!
0^!
0U!
0I!
0A!
0|
1o!
1e!
1_!
1V!
1n!
1J!
1l!
1B!
1m!
1}
1I
1&
1:!
0o!
0e!
0_!
0V!
0n!
0J!
0l!
0B!
0m!
0}
#90000
1!
1a
1b
1%"
1>!
01!
1"!
#100000
0!
0a
0b
1$"
1L!
1;!
1m
1X!
0!!
1g
0f
0c
0^
1]
0[
17!
12!
1'!
0#!
00
1.
0-
1N!
1W
08!
1c!
0\!
1@!
0(!
1]!
14
09!
0I
0]!
0)!
0&
1g!
1A!
1h!
1^!
0:!
1G
1E
1*
1(
0h!
0^!
0i!
0/!
1l!
1B!
1_!
0H
0G
0(
0'
0_!
00!
#110000
1!
1a
1b
18"
1=!
#120000
0!
0a
0b
0$"
0#"
1""
0L!
0X!
0g
0N!
0W
0]
0.
04
0Y!
zE
zF
zG
zH
zI
zJ
zK
zL
z#
z$
z%
z&
z'
z(
z)
z*
1d!
1^!
1U!
1I!
1:!
1/!
1|
1o!
1e!
1_!
1V!
1n!
1J!
10!
1m!
1}
#130000
1!
1a
1b
#140000
0!
0a
0b
0""
0;!
1W!
1!!
1c
1^
1_
02!
1#!
1,
1-
1Y!
1E
0F
0G
0H
0I
0J
0K
0L
0c!
0#
0$
0%
0&
0'
0(
0)
1*
0d!
0^!
0U!
0I!
0:!
0/!
0|
0o!
0e!
0_!
0V!
0n!
0J!
00!
0m!
0}
#150000
1!
1a
1b
1("
0%"
1C!
0"!
#160000
0!
0a
0b
1$"
1X!
0W!
0!!
1k
1f
0c
1\
1`
0^
0_
1]
12!
0#!
1.
0,
0-
1+
1/
1x
1c!
1(!
1H!
1J
1)!
1%
1I!
1i!
1/!
1n!
1J!
1H
1'
10!
#170000
1!
1a
1b
1r!
1w!
0s!
0j
#180000
0!
0a
0b
0$"
1#"
0<"
1;"
0m
1h
0X!
1!!
0k
1c
1w
0\
0`
1^
0]
1[
07!
02!
0'!
1#!
10
0.
1-
0+
0/
0Y!
zE
zF
zG
zH
zI
zJ
zK
zL
1G!
0c!
1\!
z#
z$
z%
z&
z'
z(
z)
z*
0H!
1Y!
1d!
1^!
1U!
1:!
1|
1E
0F
0G
1H
0I
0K
0L
0J
0%
0#
0$
0&
1'
0(
0)
1*
1H!
0d!
0I!
0^!
0U!
0:!
0|
1o!
1e!
1_!
1V!
1m!
1}
1J
1%
1I!
0o!
0e!
0n!
0J!
0_!
0V!
0m!
0}
1n!
1J!
#190000
1!
1a
1b
1%"
0C!
0>!
1"!
1u
1y
#200000
0!
0a
0b
1$"
1m
1X!
0!!
1i
1g
0f
0c
1Z
0^
1]
0[
17!
12!
1'!
0#!
1z
00
1.
0-
11
0G!
1c!
0\!
0?!
0(!
1]!
0H!
1{
1F
0J
0]!
0@!
0)!
0%
1)
1h!
1^!
0I!
1|
1G
1(
0h!
0^!
0g!
0A!
0i!
0/!
1_!
0n!
0J!
1m!
1}
0H
0E
0G
0(
0*
0'
0_!
0l!
0B!
00!
#210000
1!
1a
1b
1/"
1p
1t
#220000
0!
0a
0b
0$"
0#"
1""
1K!
0h
0X!
0i
0g
0Z
0]
07!
0.
01
1f!
1N!
0Y!
zE
zF
zG
zH
zI
zJ
zK
zL
1W
1U
1G!
13!
02!
16
14
z#
z$
z%
z&
z'
z(
z)
z*
1g!
1^!
1Y!
1U!
1A!
1/!
1d!
1I!
1:!
1F
0G
0H
0I
0J
0K
0L
1E
0G!
0c!
1*
0#
0$
0%
0&
0'
0(
1)
1H!
1_!
0d!
0^!
0U!
0I!
0:!
0/!
1V!
1l!
1B!
10!
1o!
1e!
1n!
1J!
1J
1%
0H!
1I!
0o!
0e!
0_!
0V!
0n!
0J!
00!
0J
0%
0I!
1n!
1J!
0n!
0J!
#230000
1!
1a
1b
17"
1,!
0t
1Z!
0{
0F
0)
1h!
1^!
0|
1G
1(
1_!
0m!
0}
#240000
0!
0a
0b
0""
0K!
1W!
1!!
1c
1^
1_
17!
1#!
1,
1-
0f!
0N!
0W
0U
1b!
1G!
18!
03!
06
04
0h!
0g!
0^!
0A!
1{
1F
0E
0G
0b!
0G!
08!
0(
0*
1)
1j!
1d!
1H!
19!
0_!
0l!
0B!
1|
1I
1J
1K
1$
1%
1&
0j!
0d!
0H!
09!
1o!
1e!
1I!
1:!
1m!
1}
0I
0J
0K
0$
0%
0&
0o!
0e!
0I!
0:!
1n!
1J!
0n!
0J!
#250000
1!
1a
1b
0("
0%"
1'"
1`!
1C!
11!
0u
#260000
0!
0a
0b
1$"
1X!
0W!
0!!
1k
1f
0c
1\
1`
0^
0_
1]
12!
0#!
0y
1.
0,
0-
1+
1/
1c!
0z
1j!
1H!
19!
1I
1J
1K
1$
1%
1&
1d!
0{
1I!
1:!
0F
0)
1o!
1e!
0|
1n!
1J!
0m!
0}
#270000
1!
1a
1b
1q!
0w!
1s!
0t!
0M!
0l
1j
#280000
0!
0a
0b
0$"
1#"
1<"
1~
1h
0X!
1!!
0k
1c
1$!
0x
0w
0\
0`
1^
0]
0.
1-
0+
0/
0!!
1v
0Y!
0$!
1x
zE
zF
zG
zH
zI
zJ
zK
zL
1X
1Y
0^
13!
0'!
1z
0-
12
13
z#
z$
z%
z&
z'
z(
z)
z*
1^!
1U!
1A!
1/!
1|
1b!
1G!
18!
1@!
1Y!
1{
1_!
1V!
1l!
1B!
10!
1m!
1}
0E
1F
0G
0H
1I
1J
1K
0L
0#
1$
1%
1&
0'
0(
1)
0*
0j!
0d!
0H!
09!
1g!
0^!
0U!
0/!
1E
0I
0J
0K
0$
0%
0&
1*
0o!
0e!
0I!
0:!
0_!
0V!
00!
0n!
0J!
#290000
1!
1a
1b
1~!
1!"
1M
1N
1=
1>
#300000
0!
0a
0b
1$"
1;!
0v
1g
0f
0c
0X
0Y
03!
1'!
0z
02
03
0b!
0G!
08!
0@!
0Y!
0{
zE
zF
zG
zH
zI
zJ
zK
zL
z#
z$
z%
z&
z'
z(
z)
z*
1j!
1d!
1H!
19!
0g!
1^!
1U!
1I!
1:!
1/!
1o!
1e!
1_!
1V!
1n!
1J!
10!
#310000
1!
1a
1b
#320000
0!
0a
0b
0$"
0#"
1""
1K!
0~
0h
1v
0g
1X
1Y
13!
0'!
1z
12
13
0v
0X
0Y
1b!
1G!
18!
1@!
03!
1'!
0z
02
03
1Y!
1{
0E
1F
0G
0H
1I
1J
1K
0L
0b!
0G!
08!
0@!
0#
1$
1%
1&
0'
0(
1)
0*
0j!
0d!
0H!
09!
1g!
0Y!
0{
0^!
0U!
0/!
zF
zG
zH
zL
zE
zI
zJ
zK
z$
z%
z&
z*
z#
z'
z(
z)
1j!
1d!
1H!
19!
0g!
0o!
0e!
1^!
1U!
1/!
0_!
0V!
00!
1o!
1e!
1_!
1V!
10!
#330000
1!
1a
1b
#340000
0!
0a
0b
0""
0K!
0;!
1W!
1!!
1c
1^
1_
02!
1#!
1y
1,
1-
1Y!
0E
0F
0G
0H
1I
1J
1K
0L
0c!
1?!
1z
0#
1$
1%
1&
0'
0(
0)
0*
0j!
0H!
09!
0^!
0U!
0A!
0/!
0|
0I
0J
0K
1@!
0$
0%
0&
0d!
1{
0I!
0:!
0_!
0V!
0l!
0B!
00!
0m!
0}
1F
1)
1g!
1A!
0o!
0e!
1|
0n!
0J!
1E
1*
1l!
1B!
1m!
1}
#350000
1!
1a
1b
1("
0`!
0C!
01!
#360000
0!
0a
0b
1$"
1X!
0W!
0!!
1k
1f
0c
1\
1`
0^
0_
1]
12!
0#!
0y
1.
0,
0-
1+
1/
1$!
0x
1c!
0?!
0z
0@!
0{
0F
0)
0g!
0A!
0|
0E
0*
0l!
0B!
0m!
0}
#370000
1!
1a
1b
0q!
0r!
0s!
1M!
#380000
0!
0a
0b
0$"
1#"
0<"
0;"
1:"
1~
0X!
1!!
0k
1c
1w
0\
0`
1^
0]
0.
1-
0+
0/
0!!
0Y!
zE
zF
zG
zH
zI
zJ
zK
zL
0^
0-
z#
z$
z%
z&
z'
z(
z)
z*
1d!
1^!
1U!
1I!
1A!
1:!
1/!
1|
1o!
1e!
1_!
1V!
1n!
1J!
1l!
1B!
10!
1m!
1}
#390000
1!
1a
1b
#400000
0!
0a
0b
1$"
1g
0f
0c
#410000
1!
1a
1b
#420000
0!
0a
0b
0$"
0#"
1""
0~
0g
#430000
1!
1a
1b
#440000
0!
0a
0b
0""
1W!
1!!
1c
1^
1_
02!
1#!
1,
1-
1Y!
0E
0F
0G
0H
0I
0J
0K
0L
0c!
1]!
0#
0$
0%
0&
0'
0(
0)
0*
0d!
0^!
0U!
0I!
0A!
0:!
0/!
0|
1h!
1^!
0o!
0e!
0_!
0V!
0n!
0J!
0l!
0B!
00!
0m!
0}
1G
1(
1_!
#450000
1!
1a
1b
1&"
0("
0'"
#460000
0!
0a
0b
1$"
1X!
0W!
0!!
1k
1f
0c
1\
1`
0^
0_
1]
12!
0#!
1.
0,
0-
1+
1/
1c!
0]!
0h!
0^!
0G
0(
0_!
#470000
1!
1a
1b
#480000
0!
0a
0b
0$"
1#"
1<"
1~
0X!
1!!
0k
1c
1x
0w
0\
0`
1^
0]
0.
1-
0+
0/
0!!
0Y!
0x
zE
zF
zG
zH
zI
zJ
zK
zL
0^
0-
z#
z$
z%
z&
z'
z(
z)
z*
1d!
1^!
1U!
1I!
1A!
1:!
1/!
1|
1o!
1e!
1_!
1V!
1n!
1J!
1l!
1B!
10!
1m!
1}
#490000
1!
1a
1b
#500000
0!
0a
0b
1$"
1g
0f
0c
#510000
1!
1a
1b
#520000
0!
0a
0b
0$"
0#"
1""
0~
0g
#530000
1!
1a
1b
#540000
0!
0a
0b
0""
1W!
1!!
1c
1^
1_
02!
1#!
1,
1-
1Y!
0E
0F
0G
0H
0I
0J
0K
0L
0c!
1]!
1?!
0#
0$
0%
0&
0'
0(
0)
0*
0d!
0^!
0U!
0I!
0A!
0:!
0/!
0|
1@!
1h!
1^!
0o!
0e!
0_!
0V!
0n!
0J!
0l!
0B!
00!
0m!
0}
1G
1(
1g!
1A!
1_!
1E
1*
1l!
1B!
#550000
1!
1a
1b
1("
#560000
0!
0a
0b
1$"
1X!
0W!
0!!
1k
1f
0c
1\
1`
0^
0_
1]
12!
0#!
1.
0,
0-
1+
1/
1x
1c!
0]!
0?!
0@!
0h!
0^!
0G
0(
0g!
0A!
0_!
0E
0*
0l!
0B!
#570000
1!
1a
1b
#580000
0!
0a
0b
0$"
1#"
0<"
1;"
1~
0X!
1!!
0k
1c
1w
0\
0`
1^
0]
0.
1-
0+
0/
0!!
0Y!
zE
zF
zG
zH
zI
zJ
zK
zL
0^
0-
z#
z$
z%
z&
z'
z(
z)
z*
1d!
1^!
1U!
1I!
1A!
1:!
1/!
1|
1o!
1e!
1_!
1V!
1n!
1J!
1l!
1B!
10!
1m!
1}
#590000
1"
1!
1d
1a
1e
1b
0#"
0/"
07"
08"
0;"
0:"
0("
0&"
0!"
0~!
0N
0M
0~
0p
0,!
1t
0=!
11!
0"!
0>
0=
1W!
0f
0$!
0x
1_
0t
0Z!
1(!
02!
1#!
1,
1!!
19!
1Y!
0E
0F
0G
0H
0J
0K
0L
1I
1^
1)!
0c!
0(!
1-
1&
0#
0$
0%
0'
0(
0)
0*
0^!
09!
0d!
0U!
0I!
0A!
0/!
0|
0I
0)!
0&
1i!
1/!
0_!
0:!
0o!
0e!
0V!
0n!
0J!
0l!
0B!
00!
0m!
0}
1H
1'
0i!
0/!
10!
0H
0'
00!
#600000
0!
0a
0b
#610000
1!
1a
1b
#620000
0!
0a
0b
#630000
0"
1!
0d
1a
0e
1b
#640000
0!
0a
0b
1$"
1X!
0W!
0!!
1k
1f
0c
1\
1`
0^
0_
1]
12!
0#!
1.
0,
0-
1+
1/
1c!
1(!
19!
1I
1)!
1&
1:!
1i!
1/!
1H
1'
10!
#650000
1!
1a
1b
1s!
1t!
1l
#660000
0!
0a
0b
0$"
1#"
1<"
0m
0X!
1!!
0k
1c
1x
0w
0\
0`
1^
0]
1[
07!
02!
0'!
1#!
10
0.
1-
0+
0/
0Y!
0x
zE
zF
zG
zH
zI
zJ
zK
zL
18!
0c!
1\!
1?!
z#
z$
z%
z&
z'
z(
z)
z*
09!
1Y!
1d!
1^!
1U!
1I!
1A!
1|
0E
0F
0G
1H
0J
0K
0L
0I
0&
0#
0$
0%
1'
0(
0)
0*
19!
0d!
0:!
0^!
0U!
0I!
0A!
0|
1o!
1e!
1_!
1V!
1n!
1J!
1l!
1B!
1m!
1}
1I
1&
1:!
0o!
0e!
0_!
0V!
0n!
0J!
0l!
0B!
0m!
0}
#670000
1!
1a
1b
1%"
1>!
01!
1"!
#680000
0!
0a
0b
1$"
1L!
1;!
1m
1X!
0!!
1g
0f
0c
0^
1]
0[
17!
12!
1'!
0#!
00
1.
0-
1N!
1W
08!
1c!
0\!
1@!
0(!
1]!
14
09!
0I
0]!
0)!
0&
1g!
1A!
1h!
1^!
0:!
1G
1E
1*
1(
0h!
0^!
0i!
0/!
1l!
1B!
1_!
0H
0G
0(
0'
0_!
00!
#690000
1!
1a
1b
18"
1=!
#700000
0!
0a
0b
0$"
0#"
1""
0L!
0X!
0g
0N!
0W
0]
0.
04
0Y!
zE
zF
zG
zH
zI
zJ
zK
zL
z#
z$
z%
z&
z'
z(
z)
z*
1d!
1^!
1U!
1I!
1:!
1/!
1|
1o!
1e!
1_!
1V!
1n!
1J!
10!
1m!
1}
#710000
1!
1a
1b
#720000
0!
0a
0b
0""
0;!
1W!
1!!
1c
1^
1_
02!
1#!
1,
1-
1Y!
1E
0F
0G
0H
0I
0J
0K
0L
0c!
0#
0$
0%
0&
0'
0(
0)
1*
0d!
0^!
0U!
0I!
0:!
0/!
0|
0o!
0e!
0_!
0V!
0n!
0J!
00!
0m!
0}
#730000
1!
1a
1b
1("
0%"
1C!
0"!
#740000
0!
0a
0b
1$"
1X!
0W!
0!!
1k
1f
0c
1\
1`
0^
0_
1]
12!
0#!
1.
0,
0-
1+
1/
1x
1c!
1(!
1H!
1J
1)!
1%
1I!
1i!
1/!
1n!
1J!
1H
1'
10!
#750000
1!
1a
1b
1r!
1w!
0s!
0j
#760000
0!
0a
0b
0$"
1#"
0<"
1;"
0m
1h
0X!
1!!
0k
1c
1w
0\
0`
1^
0]
1[
07!
02!
0'!
1#!
10
0.
1-
0+
0/
0Y!
zE
zF
zG
zH
zI
zJ
zK
zL
1G!
0c!
1\!
z#
z$
z%
z&
z'
z(
z)
z*
0H!
1Y!
1d!
1^!
1U!
1:!
1|
1E
0F
0G
1H
0I
0K
0L
0J
0%
0#
0$
0&
1'
0(
0)
1*
1H!
0d!
0I!
0^!
0U!
0:!
0|
1o!
1e!
1_!
1V!
1m!
1}
1J
1%
1I!
0o!
0e!
0n!
0J!
0_!
0V!
0m!
0}
1n!
1J!
#770000
1!
1a
1b
1%"
0C!
0>!
1"!
1u
1y
#780000
0!
0a
0b
1$"
1m
1X!
0!!
1i
1g
0f
0c
1Z
0^
1]
0[
17!
12!
1'!
0#!
1z
00
1.
0-
11
0G!
1c!
0\!
0?!
0(!
1]!
0H!
1{
1F
0J
0]!
0@!
0)!
0%
1)
1h!
1^!
0I!
1|
1G
1(
0h!
0^!
0g!
0A!
0i!
0/!
1_!
0n!
0J!
1m!
1}
0H
0E
0G
0(
0*
0'
0_!
0l!
0B!
00!
#790000
1!
1a
1b
1/"
1p
1t
